<?xml version="1.0" encoding="UTF-8"?>
<testng-results ignored="0" total="0" passed="0" failed="0" skipped="0">
  <reporter-output>
  </reporter-output>
  <suite started-at="2023-01-20T16:43:44 CET" name="Surefire suite" finished-at="2023-01-20T16:43:47 CET" duration-ms="2781">
    <groups>
    </groups>
    <test started-at="2023-01-20T16:43:44 CET" name="Surefire test" finished-at="2023-01-20T16:43:47 CET" duration-ms="2781">
    </test> <!-- Surefire test -->
  </suite> <!-- Surefire suite -->
</testng-results>
