service/storage/TokenRepository.class
service/exceptions/ToManyTokensLeftException.class
service/adapter/TokenAdapter.class
service/port/ITokenRepository.class
service/port/ITokenService.class
service/domain/TokenList.class
service/exceptions/InvalidTokenException.class
service/TokenStartUp.class
service/TokenService.class
service/exceptions/UserNotFoundException.class
